Cricket data analysis
…
outliers = odi %>% filter((Runs<lw) | (Runs>uw))
nrow(outliers) / sum(!is.na(odi$Runs)) * 100

## [1] 5.354204

Frequency distribution on categorical column

odi %>% group_by(Player) %>% summarise(total_matches=n()) %>% arrange(-total_matches)

## # A tibble: 1,936 x 2
##    Player                 total_matches
##    <fct>                          <int>
##  1 Sachin R Tendulkar               442
##  2 Sanath T Jayasuriya              433
##  3 Ricky T Ponting                  360
##  4 Inzamam-ul-Haq                   351
##  5 D P Mahela Jayawardene           330
##  6 Rahul Dravid                     318
##  7 Mohammad Azharuddin              308
##  8 Jacques H Kallis                 303
##  9 Shahid Afridi                    303
## 10 Sourav C Ganguly                 300
## # ... with 1,926 more rows
…
